sha256_trace.vcd
$version Generated by VerilatedVcd $end
$timescale 1ps $end
 $scope module TOP $end
  $var wire 1 Q clk $end
  $var wire 1 R rst_n $end
  $var wire 1 S init $end
  $var wire 1 T next_block $end
  $var wire 512 U block_in [511:0] $end
  $var wire 1 e ready $end
  $var wire 1 f hash_valid $end
  $var wire 256 g hash_out [255:0] $end
  $scope module sha256_core $end
   $var wire 1 Q clk $end
   $var wire 1 R rst_n $end
   $var wire 1 S init $end
   $var wire 1 T next_block $end
   $var wire 512 U block_in [511:0] $end
   $var wire 1 e ready $end
   $var wire 1 f hash_valid $end
   $var wire 256 g hash_out [255:0] $end
   $var wire 2 # state [1:0] $end
   $var wire 2 o next_state [1:0] $end
   $var wire 6 $ round_ctr [5:0] $end
   $var wire 1 % round_ctr_en $end
   $var wire 1 p round_ctr_rst $end
   $var wire 32 & k_val [31:0] $end
   $var wire 32 ' H[0] [31:0] $end
   $var wire 32 ( H[1] [31:0] $end
   $var wire 32 ) H[2] [31:0] $end
   $var wire 32 * H[3] [31:0] $end
   $var wire 32 + H[4] [31:0] $end
   $var wire 32 , H[5] [31:0] $end
   $var wire 32 - H[6] [31:0] $end
   $var wire 32 . H[7] [31:0] $end
   $var wire 32 q H0_INIT [31:0] $end
   $var wire 32 r H1_INIT [31:0] $end
   $var wire 32 s H2_INIT [31:0] $end
   $var wire 32 t H3_INIT [31:0] $end
   $var wire 32 u H4_INIT [31:0] $end
   $var wire 32 v H5_INIT [31:0] $end
   $var wire 32 w H6_INIT [31:0] $end
   $var wire 32 x H7_INIT [31:0] $end
   $var wire 32 / a [31:0] $end
   $var wire 32 0 b [31:0] $end
   $var wire 32 1 c [31:0] $end
   $var wire 32 2 d [31:0] $end
   $var wire 32 3 e [31:0] $end
   $var wire 32 4 f [31:0] $end
   $var wire 32 5 g [31:0] $end
   $var wire 32 6 h [31:0] $end
   $var wire 32 7 a_next [31:0] $end
   $var wire 32 / b_next [31:0] $end
   $var wire 32 0 c_next [31:0] $end
   $var wire 32 1 d_next [31:0] $end
   $var wire 32 8 e_next [31:0] $end
   $var wire 32 3 f_next [31:0] $end
   $var wire 32 4 g_next [31:0] $end
   $var wire 32 5 h_next [31:0] $end
   $var wire 32 9 w[0] [31:0] $end
   $var wire 32 : w[1] [31:0] $end
   $var wire 32 ; w[2] [31:0] $end
   $var wire 32 < w[3] [31:0] $end
   $var wire 32 = w[4] [31:0] $end
   $var wire 32 > w[5] [31:0] $end
   $var wire 32 ? w[6] [31:0] $end
   $var wire 32 @ w[7] [31:0] $end
   $var wire 32 A w[8] [31:0] $end
   $var wire 32 B w[9] [31:0] $end
   $var wire 32 C w[10] [31:0] $end
   $var wire 32 D w[11] [31:0] $end
   $var wire 32 E w[12] [31:0] $end
   $var wire 32 F w[13] [31:0] $end
   $var wire 32 G w[14] [31:0] $end
   $var wire 32 H w[15] [31:0] $end
   $var wire 32 I w_next [31:0] $end
   $var wire 32 J temp1 [31:0] $end
   $var wire 32 K temp2 [31:0] $end
   $var wire 32 L w_val [31:0] $end
   $scope module unnamedblk1 $end
    $var wire 32 M i [31:0] $end
   $upscope $end
   $scope module unnamedblk2 $end
    $var wire 32 N i [31:0] $end
   $upscope $end
   $scope module unnamedblk3 $end
    $var wire 32 O i [31:0] $end
   $upscope $end
   $scope module unnamedblk4 $end
    $var wire 32 P i [31:0] $end
   $upscope $end
  $upscope $end
 $upscope $end
$enddefinitions $end


#0
b00 #
b000000 $
0%
b01000010100010100010111110011000 &
b00000000000000000000000000000000 '
b00000000000000000000000000000000 (
b00000000000000000000000000000000 )
b00000000000000000000000000000000 *
b00000000000000000000000000000000 +
b00000000000000000000000000000000 ,
b00000000000000000000000000000000 -
b00000000000000000000000000000000 .
b00000000000000000000000000000000 /
b00000000000000000000000000000000 0
b00000000000000000000000000000000 1
b00000000000000000000000000000000 2
b00000000000000000000000000000000 3
b00000000000000000000000000000000 4
b00000000000000000000000000000000 5
b00000000000000000000000000000000 6
b01000010100010100010111110011000 7
b01000010100010100010111110011000 8
b00000000000000000000000000000000 9
b00000000000000000000000000000000 :
b00000000000000000000000000000000 ;
b00000000000000000000000000000000 <
b00000000000000000000000000000000 =
b00000000000000000000000000000000 >
b00000000000000000000000000000000 ?
b00000000000000000000000000000000 @
b00000000000000000000000000000000 A
b00000000000000000000000000000000 B
b00000000000000000000000000000000 C
b00000000000000000000000000000000 D
b00000000000000000000000000000000 E
b00000000000000000000000000000000 F
b00000000000000000000000000000000 G
b00000000000000000000000000000000 H
b00000000000000000000000000000000 I
b01000010100010100010111110011000 J
b00000000000000000000000000000000 K
b00000000000000000000000000000000 L
b00000000000000000000000000000000 M
b00000000000000000000000000000000 N
b00000000000000000000000000000000 O
b00000000000000000000000000000000 P
1Q
0R
0S
0T
b00000000000000000000000000000000000000000000000000000000000000000000000000000000000000000000000000000000000000000000000000000000000000000000000000000000000000000000000000000000000000000000000000000000000000000000000000000000000000000000000000000000000000000000000000000000000000000000000000000000000000000000000000000000000000000000000000000000000000000000000000000000000000000000000000000000000000000000000000000000000000000000000000000000000000000000000000000000000000000000000000000000000000000000000000000000 U
1e
0f
b0000000000000000000000000000000000000000000000000000000000000000000000000000000000000000000000000000000000000000000000000000000000000000000000000000000000000000000000000000000000000000000000000000000000000000000000000000000000000000000000000000000000000000 g
b00 o
0p
b01101010000010011110011001100111 q
b10111011011001111010111010000101 r
b00111100011011101111001101110010 s
b10100101010011111111010100111010 t
b01010001000011100101001001111111 u
b10011011000001010110100010001100 v
b00011111100000111101100110101011 w
b01011011111000001100110100011001 x
#10
0Q
#20
b00000000000000000000000000001000 M
b00000000000000000000000000010000 N
1Q
#30
0Q
#40
1Q
#50
0Q
#60
1Q
#70
0Q
#80
1Q
#90
0Q
#100
1Q
1R
#110
0Q
#120
b01101010000010011110011001100111 '
b10111011011001111010111010000101 (
b00111100011011101111001101110010 )
b10100101010011111111010100111010 *
b01010001000011100101001001111111 +
b10011011000001010110100010001100 ,
b00011111100000111101100110101011 -
b01011011111000001100110100011001 .
1Q
1S
b0110101000001001111001100110011110111011011001111010111010000101001111000110111011110011011100101010010101001111111101010011101001010001000011100101001001111111100110110000010101101000100011000001111110000011110110011010101101011011111000001100110100011001 g
#130
0Q
#140
1Q
0S
#150
0Q
#160
b01 #
1%
b01101010000010011110011001100111 /
b10111011011001111010111010000101 0
b00111100011011101111001101110010 1
b10100101010011111111010100111010 2
b01010001000011100101001001111111 3
b10011011000001010110100010001100 4
b00011111100000111101100110101011 5
b01011011111000001100110100011001 6
b01011101011010101110101111001101 7
b11111010001010100100011000100010 8
b01100001011000100110001110000000 9
b00000000000000000000000000011000 H
b01100001011000100110001110000000 I
b01010100110110100101000011101000 J
b00001000100100001001101011100101 K
b01100001011000100110001110000000 L
b00000000000000000000000000010000 O
1Q
1T
b01100001011000100110001110000000000000000000000000000000000000000000000000000000000000000000000000000000000000000000000000000000000000000000000000000000000000000000000000000000000000000000000000000000000000000000000000000000000000000000000000000000000000000000000000000000000000000000000000000000000000000000000000000000000000000000000000000000000000000000000000000000000000000000000000000000000000000000000000000000000000000000000000000000000000000000000000000000000000000000000000000000000000000000000000011000 U
0e
b01 o
#170
0Q
#180
b000001 $
b01110001001101110100010010010001 &
b01011101011010101110101111001101 /
b01101010000010011110011001100111 0
b10111011011001111010111010000101 1
b00111100011011101111001101110010 2
b11111010001010100100011000100010 3
b01010001000011100101001001111111 4
b10011011000001010110100010001100 5
b00011111100000111101100110101011 6
b01011010011010101101100110101101 7
b01111000110011100111100110001001 8
b00111100010111111000011000010111 J
b00011110000010110101001110010110 K
b00000000000000000000000000000000 L
1Q
0T
#190
0Q
#200
b000010 $
b10110101110000001111101111001111 &
b01011010011010101101100110101101 /
b01011101011010101110101111001101 0
b01101010000010011110011001100111 1
b10111011011001111010111010000101 2
b01111000110011100111100110001001 3
b11111010001010100100011000100010 4
b01010001000011100101001001111111 5
b10011011000001010110100010001100 6
b11001000110000110100011110100111 7
b11111001001010010011100111101011 8
b00111101110000011000101101100110 J
b10001011000000011011110001000001 K
1Q
#210
0Q
#220
b000011 $
b11101001101101011101101110100101 &
b11001000110000110100011110100111 /
b01011010011010101101100110101101 0
b01011101011010101110101111001101 1
b01101010000010011110011001100111 2
b11111001001010010011100111101011 3
b01111000110011100111100110001001 4
b11111010001010100100011000100010 5
b01010001000011100101001001111111 6
b11010101010100001111011001100110 7
b00100100111000000000100001010000 8
b10111010110101100010000111101001 J
b00011010011110101101010001111101 K
1Q
#230
0Q
#240
b000100 $
b00111001010101101100001001011011 &
b11010101010100001111011001100110 /
b11001000110000110100011110100111 0
b01011010011010101101100110101101 1
b01011101011010101110101111001101 2
b00100100111000000000100001010000 3
b11111001001010010011100111101011 4
b01111000110011100111100110001001 5
b11111010001010100100011000100010 6
b00000100010000001001101001101010 7
b01000011101011011010001001000101 8
b11100110010000101011011001111000 J
b00011101111111011110001111110010 K
1Q
#250
0Q
#260
b000101 $
b01011001111100010001000111110001 &
b00000100010000001001101001101010 /
b11010101010100001111011001100110 0
b11001000110000110100011110100111 1
b01011010011010101101100110101101 2
b01000011101011011010001001000101 3
b00100100111000000000100001010000 4
b11111001001010010011100111101011 5
b01111000110011100111100110001001 6
b00101011010000100000100111110101 7
b01110001010000100110000010101101 8
b00010110110101111000011100000000 J
b00010100011010101000001011110101 K
1Q
#270
0Q
#280
b000110 $
b10010010001111111000001010100100 &
b00101011010000100000100111110101 /
b00000100010000001001101001101010 0
b11010101010100001111011001100110 1
b11001000110000110100011110100111 2
b01110001010000100110000010101101 3
b01000011101011011010001001000101 4
b00100100111000000000100001010000 5
b11111001001010010011100111101011 6
b11100101000000110000001110000000 7
b10011011001001111010010000000001 8
b11010010011001000101110001011010 J
b00010010100111101010011100100110 K
1Q
#290
0Q
#300
b000111 $
b10101011000111000101111011010101 &
b11100101000000110000001110000000 /
b00101011010000100000100111110101 0
b00000100010000001001101001101010 1
b11010101010100001111011001100110 2
b10011011001001111010010000000001 3
b01110001010000100110000010101101 4
b01000011101011011010001001000101 5
b00100100111000000000100001010000 6
b10000101101000000111101101011111 7
b00001100011001010111101001111001 8
b00110111000101001000010000010011 J
b01001110100010111111011101001100 K
1Q
#310
0Q
#320
b001000 $
b11011000000001111010101010011000 &
b10000101101000000111101101011111 /
b11100101000000110000001110000000 0
b00101011010000100000100111110101 1
b00000100010000001001101001101010 2
b00001100011001010111101001111001 3
b10011011001001111010010000000001 4
b01110001010000100110000010101101 5
b01000011101011011010001001000101 6
b10001110000001001110110010111001 7
b00110010110010100010110110001100 8
b00101110100010011001001100100010 J
b01011111011110110101100110010111 K
1Q
#330
0Q
#340
b001001 $
b00010010100000110101101100000001 &
b10001110000001001110110010111001 /
b10000101101000000111101101011111 0
b11100101000000110000001110000000 1
b00101011010000100000100111110101 2
b00110010110010100010110110001100 3
b00001100011001010111101001111001 4
b10011011001001111010010000000001 5
b01110001010000100110000010101101 6
b10001100100001110011010001101011 7
b00011100110010010010010110010110 8
b11110001100001110001101110100001 J
b10011011000000000001100011001010 K
1Q
#350
0Q
#360
b001010 $
b00100100001100011000010110111110 &
b10001100100001110011010001101011 /
b10001110000001001110110010111001 0
b10000101101000000111101101011111 1
b11100101000000110000001110000000 2
b00011100110010010010010110010110 3
b00110010110010100010110110001100 4
b00001100011001010111101001111001 5
b10011011001001111010010000000001 6
b01000111100110001010001111110100 7
b01000011011010110010001111101000 8
b01011110011010000010000001101000 J
b11101001001100001000001110001100 K
1Q
#370
0Q
#380
b001011 $
b01010101000011000111110111000011 &
b01000111100110001010001111110100 /
b10001100100001110011010001101011 0
b10001110000001001110110010111001 1
b10000101101000000111101101011111 2
b01000011011010110010001111101000 3
b00011100110010010010010110010110 4
b00110010110010100010110110001100 5
b00001100011001010111101001111001 6
b11110111000111111100010110101001 7
b10000001011011111101011011101001 8
b11111011110011110101101110001010 J
b11111011010100000110101000011111 K
1Q
#390
0Q
#400
b001100 $
b01110010101111100101110101110100 &
b11110111000111111100010110101001 /
b01000111100110001010001111110100 0
b10001100100001110011010001101011 1
b10001110000001001110110010111001 2
b10000001011011111101011011101001 3
b01000011011010110010001111101000 4
b00011100110010010010010110010110 5
b00110010110010100010110110001100 6
b10000111100100010010100110010000 7
b00011110010101111000001000011000 8
b10010000010100101001010101011111 J
b11110111001111101001010000110001 K
1Q
#410
0Q
#420
b001101 $
b10000000110111101011000111111110 &
b10000111100100010010100110010000 /
b11110111000111111100010110101001 0
b01000111100110001010001111110100 1
b10001100100001110011010001101011 2
b00011110010101111000001000011000 3
b10000001011011111101011011101001 4
b01000011011010110010001111101000 5
b00011100110010010010010110010110 6
b11011001001100101110101100010110 7
b01110100010110100100100011011110 8
b11100111110100110001010001110011 J
b11110001010111111101011010100011 K
1Q
#430
0Q
#440
b001110 $
b10011011110111000000011010100111 &
b11011001001100101110101100010110 /
b10000111100100010010100110010000 0
b11110111000111111100010110101001 1
b01000111100110001010001111110100 2
b01110100010110100100100011011110 3
b00011110010101111000001000011000 4
b10000001011011111101011011101001 5
b01000011011010110010001111101000 6
b11000000011001000101111111011110 7
b00001011100100101111001000001100 8
b11000011111110100100111000011000 J
b11111100011010100001000111000110 K
1Q
#450
0Q
#460
b001111 $
b11000001100110111111000101110100 &
b11000000011001000101111111011110 /
b11011001001100101110101100010110 0
b10000111100100010010100110010000 1
b11110111000111111100010110101001 2
b00001011100100101111001000001100 3
b01110100010110100100100011011110 4
b00011110010101111000001000011000 5
b10000001011011111101011011101001 6
b10110000111110100010001110001110 7
b00000111010110010000110111001101 8
b00010000001110010100100000100100 J
b10100000110000001101101101101010 K
b00000000000000000000000000011000 L
1Q
#470
0Q
#480
b010000 $
b11100100100110110110100111000001 &
b10110000111110100010001110001110 /
b11000000011001000101111111011110 0
b11011001001100101110101100010110 1
b10000111100100010010100110010000 2
b00000111010110010000110111001101 3
b00001011100100101111001000001100 4
b01110100010110100100100011011110 5
b00011110010101111000001000011000 6
b00100001110110101001101010011011 7
b10000000001101000010001010011100 8
b11111000101000101111100100001100 J
b00101001001101111010000110001111 K
b01100001011000100110001110000000 L
1Q
#490
0Q
#500
b010001 $
b11101111101111100100011110000110 &
b00100001110110101001101010011011 /
b10110000111110100010001110001110 0
b11000000011001000101111111011110 1
b11011001001100101110101100010110 2
b10000000001101000010001010011100 3
b00000111010110010000110111001101 4
b00001011100100101111001000001100 5
b01110100010110100100100011011110 6
b11000010111110111101100111010001 7
b10000100011011101110010001010100 8
b00000000000000000000000000000000 9
b00000000000000000000000000011000 G
b01100001011000100110001110000000 H
b00000000000011110000000000000000 I
b10101011001110111111100100111110 J
b00010111101111111110000010010011 K
b00000000000011110000000000000000 L
b00000000000000000000000000001111 P
1Q
#510
0Q
#520
b010010 $
b00001111110000011001110111000110 &
b11000010111110111101100111010001 /
b00100001110110101001101010011011 0
b10110000111110100010001110001110 1
b11000000011001000101111111011110 2
b10000100011011101110010001010100 3
b10000000001101000010001010011100 4
b00000111010110010000110111001101 5
b00001011100100101111001000001100 6
b11111110011101110111101110111111 7
b11001100100010011001100101100001 8
b00000000000000000000000000011000 F
b01100001011000100110001110000000 G
b00000000000011110000000000000000 H
b01111101101010000110010000000101 I
b00001100001001010011100110000011 J
b11110010010100100100001000111100 K
b01111101101010000110010000000101 L
1Q
#530
0Q
#540
b010011 $
b00100100000011001010000111001100 &
b11111110011101110111101110111111 /
b11000010111110111101100111010001 0
b00100001110110101001101010011011 1
b10110000111110100010001110001110 2
b11001100100010011001100101100001 3
b10000100011011101110010001010100 4
b10000000001101000010001010011100 5
b00000111010110010000110111001101 6
b11100001111100100000110000110011 7
b10110000011000111000000101111001 8
b00000000000000000000000000011000 E
b01100001011000100110001110000000 F
b00000000000011110000000000000000 G
b01111101101010000110010000000101 H
b01100000000000000000001111000110 I
b11111111011010010101110111101011 J
b11100010100010001010111001001000 K
b01100000000000000000001111000110 L
1Q
#550
0Q
#560
b010100 $
b00101101111010010010110001101111 &
b11100001111100100000110000110011 /
b11111110011101110111101110111111 0
b11000010111110111101100111010001 1
b00100001110110101001101010011011 2
b10110000011000111000000101111001 3
b11001100100010011001100101100001 4
b10000100011011101110010001010100 5
b10000000001101000010001010011100 6
b10011101110001101000101101100011 7
b10001010110110101000100100110000 8
b00000000000000000000000000011000 D
b01100001011000100110001110000000 E
b00000000000011110000000000000000 F
b01111101101010000110010000000101 G
b01100000000000000000001111000110 H
b00111110100111010111101101111000 I
b01101000111111111110111010010101 J
b00110100110001101001110011001110 K
b00111110100111010111101101111000 L
1Q
#570
0Q
#580
b010101 $
b01001010011101001000010010101010 &
b10011101110001101000101101100011 /
b11100001111100100000110000110011 0
b11111110011101110111101110111111 1
b11000010111110111101100111010001 2
b10001010110110101000100100110000 3
b10110000011000111000000101111001 4
b11001100100010011001100101100001 5
b10000100011011101110010001010100 6
b11000010011000000110110101101101 7
b11100001001001010111100101110000 8
b00000000000000000000000000011000 C
b01100001011000100110001110000000 D
b00000000000011110000000000000000 E
b01111101101010000110010000000101 F
b01100000000000000000001111000110 G
b00111110100111010111101101111000 H
b00000001100000111111110000000000 I
b00011110001010011001111110011111 J
b10100100001101101100110111001110 K
b00000001100000111111110000000000 L
1Q
#590
0Q
#600
b010110 $
b01011100101100001010100111011100 &
b11000010011000000110110101101101 /
b10011101110001101000101101100011 0
b11100001111100100000110000110011 1
b11111110011101110111101110111111 2
b11100001001001010111100101110000 3
b10001010110110101000100100110000 4
b10110000011000111000000101111001 5
b11001100100010011001100101100001 6
b10100111101000110110001000111111 7
b01001001111101010001000101001010 8
b00000000000000000000000000011000 B
b01100001011000100110001110000000 C
b00000000000011110000000000000000 D
b01111101101010000110010000000101 E
b01100000000000000000001111000110 F
b00111110100111010111101101111000 G
b00000001100000111111110000000000 H
b00010010110111001011111111011011 I
b01001011011111011001010110001011 J
b01011100001001011100110010110100 K
b00010010110111001011111111011011 L
1Q
#610
0Q
#620
b010111 $
b01110110111110011000100011011010 &
b10100111101000110110001000111111 /
b11000010011000000110110101101101 0
b10011101110001101000101101100011 1
b11100001111100100000110000110011 2
b01001001111101010001000101001010 3
b11100001001001010111100101110000 4
b10001010110110101000100100110000 5
b10110000011000111000000101111001 6
b11000101110101010011110110001101 7
b10101010010001111100001101000111 8
b00000000000000000000000000011000 A
b01100001011000100110001110000000 B
b00000000000011110000000000000000 C
b01111101101010000110010000000101 D
b01100000000000000000001111000110 E
b00111110100111010111101101111000 F
b00000001100000111111110000000000 G
b00010010110111001011111111011011 H
b11100010111000101100001110001110 I
b11001000010101011011011100010100 J
b11111101011111111000011001111001 K
b11100010111000101100001110001110 L
1Q
#630
0Q
#640
b011000 $
b10011000001111100101000101010010 &
b11000101110101010011110110001101 /
b10100111101000110110001000111111 0
b11000010011000000110110101101101 1
b10011101110001101000101101100011 2
b10101010010001111100001101000111 3
b01001001111101010001000101001010 4
b11100001001001010111100101110000 5
b10001010110110101000100100110000 6
b00011100001011000010100000111000 7
b00101000001000111110111110010001 8
b00000000000000000000000000011000 @
b01100001011000100110001110000000 A
b00000000000011110000000000000000 B
b01111101101010000110010000000101 C
b01100000000000000000001111000110 D
b00111110100111010111101101111000 E
b00000001100000111111110000000000 F
b00010010110111001011111111011011 G
b11100010111000101100001110001110 H
b11001000001000010101110000011010 I
b10001010010111010110010000101110 J
b10010001110011101100010000001010 K
b11001000001000010101110000011010 L
1Q
#650
0Q
#660
b011001 $
b10101000001100011100011001101101 &
b00011100001011000010100000111000 /
b11000101110101010011110110001101 0
b10100111101000110110001000111111 1
b11000010011000000110110101101101 2
b00101000001000111110111110010001 3
b10101010010001111100001101000111 4
b01001001111101010001000101001010 5
b11100001001001010111100101110000 6
b11001101111010000000001101111101 7
b00010100001110000011110110001110 8
b00000000000000000000000000011000 ?
b01100001011000100110001110000000 @
b00000000000011110000000000000000 A
b01111101101010000110010000000101 B
b01100000000000000000001111000110 C
b00111110100111010111101101111000 D
b00000001100000111111110000000000 E
b00010010110111001011111111011011 F
b11100010111000101100001110001110 G
b11001000001000010101110000011010 H
b10110111001101100111100110100010 I
b01010001110101111101000000100001 J
b01111100000100000011001101011100 K
b10110111001101100111100110100010 L
1Q
#670
0Q
#680
b011010 $
b10110000000000110010011111001000 &
b11001101111010000000001101111101 /
b00011100001011000010100000111000 0
b11000101110101010011110110001101 1
b10100111101000110110001000111111 2
b00010100001110000011110110001110 3
b00101000001000111110111110010001 4
b10101010010001111100001101000111 5
b01001001111101010001000101001010 6
b10110110001011101100010010111100 7
b11000111010011000110010100010110 8
b00000000000000000000000000011000 >
b01100001011000100110001110000000 ?
b00000000000011110000000000000000 @
b01111101101010000110010000000101 A
b01100000000000000000001111000110 B
b00111110100111010111101101111000 C
b00000001100000111111110000000000 D
b00010010110111001011111111011011 E
b11100010111000101100001110001110 F
b11001000001000010101110000011010 G
b10110111001101100111100110100010 H
b11100101101111000011100100001001 I
b00011111101010010000001011010111 J
b10010110100001011100000111100101 K
b11100101101111000011100100001001 L
1Q
#690
0Q
#700
b011011 $
b10111111010110010111111111000111 &
b10110110001011101100010010111100 /
b11001101111010000000001101111101 0
b00011100001011000010100000111000 1
b11000101110101010011110110001101 2
b11000111010011000110010100010110 3
b00010100001110000011110110001110 4
b00101000001000111110111110010001 5
b10101010010001111100001101000111 6
b01110111110100110111010100101000 7
b11101101111111111011111111111000 8
b00000000000000000000000000011000 =
b01100001011000100110001110000000 >
b00000000000011110000000000000000 ?
b01111101101010000110010000000101 @
b01100000000000000000001111000110 A
b00111110100111010111101101111000 B
b00000001100000111111110000000000 C
b00010010110111001011111111011011 D
b11100010111000101100001110001110 E
b11001000001000010101110000011010 F
b10110111001101100111100110100010 G
b11100101101111000011100100001001 H
b00110010011001100011110001011011 I
b00101000001010101000001001101011 J
b01001111101010001111001010111101 K
b00110010011001100011110001011011 L
1Q
#710
0Q
#720
b011100 $
b11000110111000000000101111110011 &
b01110111110100110111010100101000 /
b10110110001011101100010010111100 0
b11001101111010000000001101111101 1
b00011100001011000010100000111000 2
b11101101111111111011111111111000 3
b11000111010011000110010100010110 4
b00010100001110000011110110001110 5
b00101000001000111110111110010001 6
b00110110001101001000001011001001 7
b01100001000100101010001110110111 8
b00000000000000000000000000011000 <
b01100001011000100110001110000000 =
b00000000000011110000000000000000 >
b01111101101010000110010000000101 ?
b01100000000000000000001111000110 @
b00111110100111010111101101111000 A
b00000001100000111111110000000000 B
b00010010110111001011111111011011 C
b11100010111000101100001110001110 D
b11001000001000010101110000011010 E
b10110111001101100111100110100010 F
b11100101101111000011100100001001 G
b00110010011001100011110001011011 H
b10011101001000001001110101100111 I
b01000100111001100111101101111111 J
b11110001010011100000011101001010 K
b10011101001000001001110101100111 L
1Q
#730
0Q
#740
b011101 $
b11010101101001111001000101000111 &
b00110110001101001000001011001001 /
b01110111110100110111010100101000 0
b10110110001011101100010010111100 1
b11001101111010000000001101111101 2
b01100001000100101010001110110111 3
b11101101111111111011111111111000 4
b11000111010011000110010100010110 5
b00010100001110000011110110001110 6
b10100000000001100000101100110000 7
b10101101111001111001010000110111 8
b00000000000000000000000000011000 ;
b01100001011000100110001110000000 <
b00000000000011110000000000000000 =
b01111101101010000110010000000101 >
b01100000000000000000001111000110 ?
b00111110100111010111101101111000 @
b00000001100000111111110000000000 A
b00010010110111001011111111011011 B
b11100010111000101100001110001110 C
b11001000001000010101110000011010 D
b10110111001101100111100110100010 E
b11100101101111000011100100001001 F
b00110010011001100011110001011011 G
b10011101001000001001110101100111 H
b11101100100001110010011011001011 I
b11011111111111111001000010111010 J
b11000000000001100111101001110110 K
b11101100100001110010011011001011 L
1Q
#750
0Q
#760
b011110 $
b00000110110010100110001101010001 &
b10100000000001100000101100110000 /
b00110110001101001000001011001001 0
b01110111110100110111010100101000 1
b10110110001011101100010010111100 2
b10101101111001111001010000110111 3
b01100001000100101010001110110111 4
b11101101111111111011111111111000 5
b11000111010011000110010100010110 6
b11101010100110010010101000100010 7
b00000001000010011010101100111010 8
b00000000000000000000000000011000 :
b01100001011000100110001110000000 ;
b00000000000011110000000000000000 <
b01111101101010000110010000000101 =
b01100000000000000000001111000110 >
b00111110100111010111101101111000 ?
b00000001100000111111110000000000 @
b00010010110111001011111111011011 A
b11100010111000101100001110001110 B
b11001000001000010101110000011010 C
b10110111001101100111100110100010 D
b11100101101111000011100100001001 E
b00110010011001100011110001011011 F
b10011101001000001001110101100111 G
b11101100100001110010011011001011 H
b01110000001000010011100010100100 I
b01001010110110101110011001111110 J
b10011111101111100100001110100100 K
b01110000001000010011100010100100 L
1Q
#770
0Q
#780
b011111 $
b00010100001010010010100101100111 &
b11101010100110010010101000100010 /
b10100000000001100000101100110000 0
b00110110001101001000001011001001 1
b01110111110100110111010100101000 2
b00000001000010011010101100111010 3
b10101101111001111001010000110111 4
b01100001000100101010001110110111 5
b11101101111111111011111111111000 6
b01110011101100110011101111110101 7
b10111010010110010001000100010010 8
b00000000000000000000000000011000 9
b01100001011000100110001110000000 :
b00000000000011110000000000000000 ;
b01111101101010000110010000000101 <
b01100000000000000000001111000110 =
b00111110100111010111101101111000 >
b00000001100000111111110000000000 ?
b00010010110111001011111111011011 @
b11100010111000101100001110001110 A
b11001000001000010101110000011010 B
b10110111001101100111100110100010 C
b11100101101111000011100100001001 D
b00110010011001100011110001011011 E
b10011101001000001001110101100111 F
b11101100100001110010011011001011 G
b01110000001000010011100010100100 H
b11010011101101111001011100111011 I
b01000010100001011001101111101010 J
b00110001001011011010000000001011 K
b11010011101101111001011100111011 L
1Q
#790
0Q
#800
b100000 $
b00100111101101110000101010000101 &
b01110011101100110011101111110101 /
b11101010100110010010101000100010 0
b10100000000001100000101100110000 1
b00110110001101001000001011001001 2
b10111010010110010001000100010010 3
b00000001000010011010101100111010 4
b10101101111001111001010000110111 5
b01100001000100101010001110110111 6
b10011000111000010010010100000111 7
b10011100110110011111010111110110 8
b01100001011000100110001110000000 9
b00000000000011110000000000000000 :
b01111101101010000110010000000101 ;
b01100000000000000000001111000110 <
b00111110100111010111101101111000 =
b00000001100000111111110000000000 >
b00010010110111001011111111011011 ?
b11100010111000101100001110001110 @
b11001000001000010101110000011010 A
b10110111001101100111100110100010 B
b11100101101111000011100100001001 C
b00110010011001100011110001011011 D
b10011101001000001001110101100111 E
b11101100100001110010011011001011 F
b01110000001000010011100010100100 G
b11010011101101111001011100111011 H
b10010011111101011001100101111111 I
b01100110101001010111001100101101 J
b00110010001110111011000111011010 K
b10010011111101011001100101111111 L
1Q
#810
0Q
#820
b100001 $
b00101110000110110010000100111000 &
b10011000111000010010010100000111 /
b01110011101100110011101111110101 0
b11101010100110010010101000100010 1
b10100000000001100000101100110000 2
b10011100110110011111010111110110 3
b10111010010110010001000100010010 4
b00000001000010011010101100111010 5
b10101101111001111001010000110111 6
b11111110011000000100110111110101 7
b01011001001001001001110111010011 8
b00000000000011110000000000000000 9
b01111101101010000110010000000101 :
b01100000000000000000001111000110 ;
b00111110100111010111101101111000 <
b00000001100000111111110000000000 =
b00010010110111001011111111011011 >
b11100010111000101100001110001110 ?
b11001000001000010101110000011010 @
b10110111001101100111100110100010 A
b11100101101111000011100100001001 B
b00110010011001100011110001011011 C
b10011101001000001001110101100111 D
b11101100100001110010011011001011 E
b01110000001000010011100010100100 F
b11010011101101111001011100111011 G
b10010011111101011001100101111111 H
b00111011011010001011101001110011 I
b10111001000111101001001010100011 J
b01000101010000011011101101010010 K
b00111011011010001011101001110011 L
1Q
#830
0Q
#840
b100010 $
b01001101001011000110110111111100 &
b11111110011000000100110111110101 /
b10011000111000010010010100000111 0
b01110011101100110011101111110101 1
b11101010100110010010101000100010 2
b01011001001001001001110111010011 3
b10011100110110011111010111110110 4
b10111010010110010001000100010010 5
b00000001000010011010101100111010 6
b10101001101001110111001110001100 7
b00001000010111110011100000110011 8
b01111101101010000110010000000101 9
b01100000000000000000001111000110 :
b00111110100111010111101101111000 ;
b00000001100000111111110000000000 <
b00010010110111001011111111011011 =
b11100010111000101100001110001110 >
b11001000001000010101110000011010 ?
b10110111001101100111100110100010 @
b11100101101111000011100100001001 A
b00110010011001100011110001011011 B
b10011101001000001001110101100111 C
b11101100100001110010011011001011 D
b01110000001000010011100010100100 E
b11010011101101111001011100111011 F
b10010011111101011001100101111111 G
b00111011011010001011101001110011 H
b10101111111101001111111111000001 I
b00011101110001100000111000010001 J
b10001011111000010110010101111011 K
b10101111111101001111111111000001 L
1Q
#850
0Q
#860
b100011 $
b01010011001110000000110100010011 &
b10101001101001110111001110001100 /
b11111110011000000100110111110101 0
b10011000111000010010010100000111 1
b01110011101100110011101111110101 2
b00001000010111110011100000110011 3
b01011001001001001001110111010011 4
b10011100110110011111010111110110 5
b10111010010110010001000100010010 6
b01100101101000001100111111100100 7
b11110100101100000000001011010110 8
b01100000000000000000001111000110 9
b00111110100111010111101101111000 :
b00000001100000111111110000000000 ;
b00010010110111001011111111011011 <
b11100010111000101100001110001110 =
b11001000001000010101110000011010 >
b10110111001101100111100110100010 ?
b11100101101111000011100100001001 @
b00110010011001100011110001011011 A
b10011101001000001001110101100111 B
b11101100100001110010011011001011 C
b01110000001000010011100010100100 D
b11010011101101111001011100111011 E
b10010011111101011001100101111111 F
b00111011011010001011101001110011 G
b10101111111101001111111111000001 H
b11110001000010100101110001100010 I
b10000000111111001100011011100001 J
b11100100101001000000100100000011 K
b11110001000010100101110001100010 L
1Q
#870
0Q
